(kicad_symbol_lib (version 20211014) (generator kicad_symbol_editor)
  (symbol "dsPIC30F4013-P" (in_bom yes) (on_board yes)
    (property "Reference" "U" (id 0) (at -27.94 35.56 0)
      (effects (font (size 1.27 1.27)))
    )
    (property "Value" "dsPIC30F4013-P" (id 1) (at -20.32 -35.56 0)
      (effects (font (size 1.27 1.27)))
    )
    (property "Footprint" "Package_DIP:DIP-40_W15.24mm_Socket_LongPads" (id 2) (at 0 -12.7 0)
      (effects (font (size 1.27 1.27)) hide)
    )
    (property "Datasheet" "https://ww1.microchip.com/downloads/aemDocuments/documents/OTH/ProductDocuments/DataSheets/70138G.pdf" (id 3) (at 1.27 -38.1 0)
      (effects (font (size 1.27 1.27)) hide)
    )
    (symbol "dsPIC30F4013-P_0_1"
      (rectangle (start -29.21 34.29) (end 29.21 -34.29)
        (stroke (width 0) (type default) (color 0 0 0 0))
        (fill (type background))
      )
    )
    (symbol "dsPIC30F4013-P_1_1"
      (pin input line (at -31.75 26.67 0) (length 2.54)
        (name "~{MCLR}" (effects (font (size 1.27 1.27))))
        (number "1" (effects (font (size 1.27 1.27))))
      )
      (pin bidirectional line (at -31.75 -16.51 0) (length 2.54)
        (name "AN8/RB8" (effects (font (size 1.27 1.27))))
        (number "10" (effects (font (size 1.27 1.27))))
      )
      (pin power_in line (at -7.62 36.83 270) (length 2.54)
        (name "VDD" (effects (font (size 1.27 1.27))))
        (number "11" (effects (font (size 1.27 1.27))))
      )
      (pin power_in line (at -7.62 -36.83 90) (length 2.54)
        (name "VSS" (effects (font (size 1.27 1.27))))
        (number "12" (effects (font (size 1.27 1.27))))
      )
      (pin input line (at -31.75 19.05 0) (length 2.54)
        (name "OSC1/CLKI" (effects (font (size 1.27 1.27))))
        (number "13" (effects (font (size 1.27 1.27))))
      )
      (pin bidirectional line (at 31.75 21.59 180) (length 2.54)
        (name "OSC2/CLKO/RC15" (effects (font (size 1.27 1.27))))
        (number "14" (effects (font (size 1.27 1.27))))
      )
      (pin bidirectional line (at 31.75 26.67 180) (length 2.54)
        (name "EMUD1/SOSCI/T2CK/U1ATX/CN1/RC13" (effects (font (size 1.27 1.27))))
        (number "15" (effects (font (size 1.27 1.27))))
      )
      (pin bidirectional line (at 31.75 24.13 180) (length 2.54)
        (name "EMUC1/SOSCO/T1CK/U1ARX/CN0/RC14" (effects (font (size 1.27 1.27))))
        (number "16" (effects (font (size 1.27 1.27))))
      )
      (pin bidirectional line (at -31.75 11.43 0) (length 2.54)
        (name "INT0/RA11" (effects (font (size 1.27 1.27))))
        (number "17" (effects (font (size 1.27 1.27))))
      )
      (pin bidirectional line (at 31.75 -1.27 180) (length 2.54)
        (name "IC2/INT2/RD9" (effects (font (size 1.27 1.27))))
        (number "18" (effects (font (size 1.27 1.27))))
      )
      (pin bidirectional line (at 31.75 3.81 180) (length 2.54)
        (name "OC4/RD3" (effects (font (size 1.27 1.27))))
        (number "19" (effects (font (size 1.27 1.27))))
      )
      (pin bidirectional line (at -31.75 3.81 0) (length 2.54)
        (name "AN0/Vref+/CN2/RB0" (effects (font (size 1.27 1.27))))
        (number "2" (effects (font (size 1.27 1.27))))
      )
      (pin power_in line (at -5.08 -36.83 90) (length 2.54)
        (name "VSS" (effects (font (size 1.27 1.27))))
        (number "20" (effects (font (size 1.27 1.27))))
      )
      (pin power_in line (at -5.08 36.83 270) (length 2.54)
        (name "VDD" (effects (font (size 1.27 1.27))))
        (number "21" (effects (font (size 1.27 1.27))))
      )
      (pin bidirectional line (at 31.75 6.35 180) (length 2.54)
        (name "OC3/RD2" (effects (font (size 1.27 1.27))))
        (number "22" (effects (font (size 1.27 1.27))))
      )
      (pin bidirectional line (at 31.75 1.27 180) (length 2.54)
        (name "IC1/INT1/RD8" (effects (font (size 1.27 1.27))))
        (number "23" (effects (font (size 1.27 1.27))))
      )
      (pin bidirectional line (at 31.75 -26.67 180) (length 2.54)
        (name "EMUC3/SCK1/RF6" (effects (font (size 1.27 1.27))))
        (number "24" (effects (font (size 1.27 1.27))))
      )
      (pin bidirectional line (at 31.75 -19.05 180) (length 2.54)
        (name "EMUD3/U1TX/SDO1/SCL/RF3" (effects (font (size 1.27 1.27))))
        (number "25" (effects (font (size 1.27 1.27))))
      )
      (pin bidirectional line (at 31.75 -16.51 180) (length 2.54)
        (name "U1RX/SDI1/SDA/RF2" (effects (font (size 1.27 1.27))))
        (number "26" (effects (font (size 1.27 1.27))))
      )
      (pin bidirectional line (at 31.75 -24.13 180) (length 2.54)
        (name "U2TX/CN18/RF5" (effects (font (size 1.27 1.27))))
        (number "27" (effects (font (size 1.27 1.27))))
      )
      (pin bidirectional line (at 31.75 -21.59 180) (length 2.54)
        (name "U2RX/CN17/RF4" (effects (font (size 1.27 1.27))))
        (number "28" (effects (font (size 1.27 1.27))))
      )
      (pin bidirectional line (at 31.75 -13.97 180) (length 2.54)
        (name "C1TX/RF1" (effects (font (size 1.27 1.27))))
        (number "29" (effects (font (size 1.27 1.27))))
      )
      (pin bidirectional line (at -31.75 1.27 0) (length 2.54)
        (name "AN1/Vref-/CN3/RB1" (effects (font (size 1.27 1.27))))
        (number "3" (effects (font (size 1.27 1.27))))
      )
      (pin bidirectional line (at 31.75 -11.43 180) (length 2.54)
        (name "C1RX/RF0" (effects (font (size 1.27 1.27))))
        (number "30" (effects (font (size 1.27 1.27))))
      )
      (pin power_in line (at -2.54 -36.83 90) (length 2.54)
        (name "VSS" (effects (font (size 1.27 1.27))))
        (number "31" (effects (font (size 1.27 1.27))))
      )
      (pin power_in line (at -2.54 36.83 270) (length 2.54)
        (name "VDD" (effects (font (size 1.27 1.27))))
        (number "32" (effects (font (size 1.27 1.27))))
      )
      (pin bidirectional line (at 31.75 8.89 180) (length 2.54)
        (name "EMUD2/OC2/RD1" (effects (font (size 1.27 1.27))))
        (number "33" (effects (font (size 1.27 1.27))))
      )
      (pin bidirectional line (at 31.75 11.43 180) (length 2.54)
        (name "EMUC2/OC2/RD0" (effects (font (size 1.27 1.27))))
        (number "34" (effects (font (size 1.27 1.27))))
      )
      (pin bidirectional line (at -31.75 -26.67 0) (length 2.54)
        (name "AN12/COFS/RB12" (effects (font (size 1.27 1.27))))
        (number "35" (effects (font (size 1.27 1.27))))
      )
      (pin bidirectional line (at -31.75 -24.13 0) (length 2.54)
        (name "AN11/CSDO/RB11" (effects (font (size 1.27 1.27))))
        (number "36" (effects (font (size 1.27 1.27))))
      )
      (pin bidirectional line (at -31.75 -21.59 0) (length 2.54)
        (name "AN10/CSDI/RB10" (effects (font (size 1.27 1.27))))
        (number "37" (effects (font (size 1.27 1.27))))
      )
      (pin bidirectional line (at -31.75 -19.05 0) (length 2.54)
        (name "AN9/CSCK/RB9" (effects (font (size 1.27 1.27))))
        (number "38" (effects (font (size 1.27 1.27))))
      )
      (pin power_in line (at 2.54 -36.83 90) (length 2.54)
        (name "AVSS" (effects (font (size 1.27 1.27))))
        (number "39" (effects (font (size 1.27 1.27))))
      )
      (pin bidirectional line (at -31.75 -1.27 0) (length 2.54)
        (name "AN2/~{SS1}/LVDIN/CN4/RB2" (effects (font (size 1.27 1.27))))
        (number "4" (effects (font (size 1.27 1.27))))
      )
      (pin power_in line (at 2.54 36.83 270) (length 2.54)
        (name "AVDD" (effects (font (size 1.27 1.27))))
        (number "40" (effects (font (size 1.27 1.27))))
      )
      (pin bidirectional line (at -31.75 -3.81 0) (length 2.54)
        (name "AN3/CN5/RB3" (effects (font (size 1.27 1.27))))
        (number "5" (effects (font (size 1.27 1.27))))
      )
      (pin bidirectional line (at -31.75 -6.35 0) (length 2.54)
        (name "AN4/IC7/CN6/RB4" (effects (font (size 1.27 1.27))))
        (number "6" (effects (font (size 1.27 1.27))))
      )
      (pin bidirectional line (at -31.75 -8.89 0) (length 2.54)
        (name "AN5/IC8/CN7/RB5" (effects (font (size 1.27 1.27))))
        (number "7" (effects (font (size 1.27 1.27))))
      )
      (pin bidirectional line (at -31.75 -11.43 0) (length 2.54)
        (name "PGC/EMUC/AN6/OCFA/RB6" (effects (font (size 1.27 1.27))))
        (number "8" (effects (font (size 1.27 1.27))))
      )
      (pin bidirectional line (at -31.75 -13.97 0) (length 2.54)
        (name "PGD/EMUD/AN7/RB7" (effects (font (size 1.27 1.27))))
        (number "9" (effects (font (size 1.27 1.27))))
      )
    )
  )
)
